…
```r
ecosphere%>%
  filter(habitat == "Wetland")
```

```
## # A tibble: 153 × 21
##    order    family commo…¹ scien…² diet  life_…³ habitat urban…⁴ migra…⁵ log10…⁶
##    <chr>    <chr>  <chr>   <chr>   <chr> <chr>   <chr>   <chr>   <chr>     <dbl>
##  1 Anserif… Anati… "Ameri… Anas r… Vege… Long    Wetland No      Short      3.09
##  2 Anserif… Anati… "Ameri… Anas a… Vege… Middle  Wetland No      Short      2.88
##  3 Anserif… Anati… "Barro… Buceph… Inve… Middle  Wetland No      Modera…    2.96
##  4 Anserif… Anati… "Black… Branta… Vege… Long    Wetland No      Modera…    3.11
##  5 Anserif… Anati… "Black… Melani… Inve… Middle  Wetland No      Modera…    3.02
##  6 Anserif… Anati… "Black… Dendro… Vege… Short   Wetland No      Withdr…    2.88
##  7 Anserif… Anati… "Blue-… Anas d… Vege… Middle  Wetland No      Modera…    2.56
##  8 Anserif… Anati… "Buffl… Buceph… Inve… Middle  Wetland No      Short      2.6 
##  9 Anserif… Anati… "Cackl… Branta… Vege… Middle  Wetland Yes     Short      3.45
## 10 Anserif… Anati… "Canva… Aythya… Vege… Middle  Wetland No      Short      3.08
## # … with 143 more rows, 11 more variables: mean_eggs_per_clutch <dbl>,
## #   mean_age_at_sexual_maturity <dbl>, population_size <dbl>,
## #   winter_range_area <dbl>, range_in_cbc <dbl>, strata <dbl>, circles <dbl>,
## #   feeder_bird <chr>, median_trend <dbl>, lower_95_percent_ci <dbl>,
## #   upper_95_percent_ci <dbl>, and abbreviated variable names ¹​common_name,
## #   ²​scientific_name, ³​life_expectancy, ⁴​urban_affiliate, ⁵​migratory_strategy,
## #   ⁶​log10_mass
```

```r
#153 rows = 153 species
```

```r
ecosphere%>%
  filter(habitat == "Grassland")
```

```
## # A tibble: 36 × 21
##    order    family commo…¹ scien…² diet  life_…³ habitat urban…⁴ migra…⁵ log10…⁶
##    <chr>    <chr>  <chr>   <chr>   <chr> <chr>   <chr>   <chr>   <chr>     <dbl>
##  1 Charadr… Chara… Mounta… Charad… Inve… Short   Grassl… No      Modera…    1.98
##  2 Charadr… Chara… Pacifi… Pluvia… Inve… Short   Grassl… No      Long       2.18
##  3 Charadr… Scolo… Long-b… Numeni… Inve… Middle  Grassl… No      Modera…    2.77
##  4 Falconi… Accip… Ferrug… Buteo … Vert… Middle  Grassl… No      Short      3.17
##  5 Falconi… Accip… Rough-… Buteo … Vert… Middle  Grassl… No      Modera…    2.98
##  6 Falconi… Accip… White-… Buteo … Vert… Middle  Grassl… No      Reside…    3.01
##  7 Falconi… Falco… Aploma… Falco … Vert… Middle  Grassl… No      Reside…    2.53
##  8 Falconi… Falco… Gyrfal… Falco … Vert… Middle  Grassl… No      Irrupt…    3.16
##  9 Falconi… Falco… Prairi… Falco … Vert… Short   Grassl… No      Short      2.85
## 10 Gallifo… Phasi… Gray P… Perdix… Seed  Short   Grassl… No      Reside…    2.61
## # … with 26 more rows, 11 more variables: mean_eggs_per_clutch <dbl>,
## #   mean_age_at_sexual_maturity <dbl>, population_size <dbl>,
## #   winter_range_area <dbl>, range_in_cbc <dbl>, strata <dbl>, circles <dbl>,
## #   feeder_bird <chr>, median_trend <dbl>, lower_95_percent_ci <dbl>,
## #   upper_95_percent_ci <dbl>, and abbreviated variable names ¹​common_name,
## #   ²​scientific_name, ³​life_expectancy, ⁴​urban_affiliate, ⁵​migratory_strategy,
## #   ⁶​log10_mass
```

```r
#36 rows= 36 species
```

```r
ecosphere%>%
  filter(habitat == "Ocean")
```

```
## # A tibble: 44 × 21
##    order    family commo…¹ scien…² diet  life_…³ habitat urban…⁴ migra…⁵ log10…⁶
##    <chr>    <chr>  <chr>   <chr>   <chr> <chr>   <chr>   <chr>   <chr>     <dbl>
##  1 Anserif… Anati… Common… Somate… Inve… Middle  Ocean   No      Short      3.31
##  2 Charadr… Alcid… Ancien… Synthl… Inve… Short   Ocean   No      Short      2.34
##  3 Charadr… Alcid… Atlant… Frater… Vert… Long    Ocean   No      Short      2.77
##  4 Charadr… Alcid… Black … Cepphu… Vert… Long    Ocean   No      Withdr…    2.58
##  5 Charadr… Alcid… Cassin… Ptycho… Inve… Middle  Ocean   No      Short      2.27
##  6 Charadr… Alcid… Common… Uria a… Vert… Long    Ocean   No      Short      3   
##  7 Charadr… Alcid… Dovekie Alle a… Inve… Middle  Ocean   No      Withdr…    2.26
##  8 Charadr… Alcid… Marble… Brachy… Inve… Short   Ocean   No      Withdr…    2.34
##  9 Charadr… Alcid… Pigeon… Cepphu… Vert… Middle  Ocean   No      Withdr…    2.72
## 10 Charadr… Alcid… Razorb… Alca t… Vert… Long    Ocean   No      Short      2.86
## # … with 34 more rows, 11 more variables: mean_eggs_per_clutch <dbl>,
## #   mean_age_at_sexual_maturity <dbl>, population_size <dbl>,
## #   winter_range_area <dbl>, range_in_cbc <dbl>, strata <dbl>, circles <dbl>,
## #   feeder_bird <chr>, median_trend <dbl>, lower_95_percent_ci <dbl>,
## #   upper_95_percent_ci <dbl>, and abbreviated variable names ¹​common_name,
## #   ²​scientific_name, ³​life_expectancy, ⁴​urban_affiliate, ⁵​migratory_strategy,
## #   ⁶​log10_mass
```

```r
#44 rows =44 species
```

```r
ecosphere%>%
  filter(habitat == "Woodland")
```

```
## # A tibble: 177 × 21
##    order    family commo…¹ scien…² diet  life_…³ habitat urban…⁴ migra…⁵ log10…⁶
##    <chr>    <chr>  <chr>   <chr>   <chr> <chr>   <chr>   <chr>   <chr>     <dbl>
##  1 Apodifo… Apodi… Vaux's… Chaetu… Inve… Short   Woodla… No      Modera…    1.28
##  2 Apodifo… Troch… Anna's… Calypt… Nect… Short   Woodla… Yes     Short      0.63
##  3 Apodifo… Troch… Black-… Archil… Nect… Middle  Woodla… Yes     Short      0.48
##  4 Apodifo… Troch… Blue-t… Lampor… Nect… Short   Woodla… No      Short      0.88
##  5 Apodifo… Troch… Broad-… Cynant… Nect… Short   Woodla… Yes     Withdr…    0.48
##  6 Apodifo… Troch… Broad-… Selasp… Nect… Middle  Woodla… Yes     Modera…    0.55
##  7 Apodifo… Troch… Buff-b… Amazil… Nect… Middle  Woodla… Yes     Reside…    0.6 
##  8 Apodifo… Troch… Callio… Stellu… Nect… Short   Woodla… No      Modera…    0.48
##  9 Apodifo… Troch… Magnif… Eugene… Nect… Short   Woodla… No      Short      0.9 
## 10 Apodifo… Troch… Ruby-t… Archil… Nect… Short   Woodla… Yes     Modera…    0.49
## # … with 167 more rows, 11 more variables: mean_eggs_per_clutch <dbl>,
## #   mean_age_at_sexual_maturity <dbl>, population_size <dbl>,
## #   winter_range_area <dbl>, range_in_cbc <dbl>, strata <dbl>, circles <dbl>,
## #   feeder_bird <chr>, median_trend <dbl>, lower_95_percent_ci <dbl>,
## #   upper_95_percent_ci <dbl>, and abbreviated variable names ¹​common_name,
## #   ²​scientific_name, ³​life_expectancy, ⁴​urban_affiliate, ⁵​migratory_strategy,
## #   ⁶​log10_mass
```
…
```r
#largest winter range is the sooty shearwater with an area of 185968946, the smallest winter range is the skylark with an area of 11
```

Problem 6. (2 points) The family Anatidae includes ducks, geese, and swans. Make a new object `ducks` that only includes species in the family Anatidae. Restrict this new dataframe to include all variables except order and family.

```r
ducks <- filter(ecosphere, family=="Anatidae")
ducks <- select(ducks, -order, -family)
ducks
```

```
## # A tibble: 44 × 19
##    commo…¹ scien…² diet  life_…³ habitat urban…⁴ migra…⁵ log10…⁶ mean_…⁷ mean_…⁸
##    <chr>   <chr>   <chr> <chr>   <chr>   <chr>   <chr>     <dbl>   <dbl>   <dbl>
##  1 "Ameri… Anas r… Vege… Long    Wetland No      Short      3.09     9       1  
##  2 "Ameri… Anas a… Vege… Middle  Wetland No      Short      2.88     7.5     1  
##  3 "Barro… Buceph… Inve… Middle  Wetland No      Modera…    2.96    10.5     3  
##  4 "Black… Branta… Vege… Long    Wetland No      Modera…    3.11     3.5     2.5
##  5 "Black… Melani… Inve… Middle  Wetland No      Modera…    3.02     9.5     2  
##  6 "Black… Dendro… Vege… Short   Wetland No      Withdr…    2.88    13.5     1  
##  7 "Blue-… Anas d… Vege… Middle  Wetland No      Modera…    2.56    10       0.6
##  8 "Buffl… Buceph… Inve… Middle  Wetland No      Short      2.6      8.5     2  
##  9 "Cackl… Branta… Vege… Middle  Wetland Yes     Short      3.45     5       1  
## 10 "Canva… Aythya… Vege… Middle  Wetland No      Short      3.08     8       1  
## # … with 34 more rows, 9 more variables: population_size <dbl>,
## #   winter_range_area <dbl>, range_in_cbc <dbl>, strata <dbl>, circles <dbl>,
## #   feeder_bird <chr>, median_trend <dbl>, lower_95_percent_ci <dbl>,
## #   upper_95_percent_ci <dbl>, and abbreviated variable names ¹​common_name,
## #   ²​scientific_name, ³​life_expectancy, ⁴​urban_affiliate, ⁵​migratory_strategy,
## #   ⁶​log10_mass, ⁷​mean_eggs_per_clutch, ⁸​mean_age_at_sexual_maturity
```
…
Problem 11. (2 points) Consider the results from questions 9 and 10. Are there any species for which their threatened status needs further study? How do you know?

```r
ecosphere%>%
  filter(population_size <= 250000)%>%
  filter(family !="Accipitridae")
```

```
## # A tibble: 24 × 21
##    order    family commo…¹ scien…² diet  life_…³ habitat urban…⁴ migra…⁵ log10…⁶
##    <chr>    <chr>  <chr>   <chr>   <chr> <chr>   <chr>   <chr>   <chr>     <dbl>
##  1 Falconi… Falco… Gyrfal… Falco … Vert… Middle  Grassl… No      Irrupt…    3.16
##  2 Falconi… Falco… Prairi… Falco … Vert… Short   Grassl… No      Short      2.85
##  3 Falconi… Pandi… Osprey  Pandio… Vert… Middle  Wetland Yes     Short      3.22
##  4 Passeri… Cincl… Americ… Cinclu… Inve… Short   Wetland Yes     Reside…    1.75
##  5 Passeri… Corvi… Clark'… Nucifr… Seed  Middle  Woodla… No      Reside…    2.11
##  6 Passeri… Corvi… Mexica… Aphelo… Omni… Middle  Woodla… No      Reside…    2.12
##  7 Passeri… Ember… Bachma… Peucae… Omni… Short   Woodla… No      Withdr…    1.29
##  8 Passeri… Ember… Black-… Spizel… Omni… Short   Shrubl… No      Short      1.1 
##  9 Passeri… Ember… Seasid… Ammodr… Inve… Short   Wetland No      Withdr…    1.35
## 10 Passeri… Mimid… Bendir… Toxost… Inve… Short   Shrubl… No      Withdr…    1.79
## # … with 14 more rows, 11 more variables: mean_eggs_per_clutch <dbl>,
## #   mean_age_at_sexual_maturity <dbl>, population_size <dbl>,
## #   winter_range_area <dbl>, range_in_cbc <dbl>, strata <dbl>, circles <dbl>,
## #   feeder_bird <chr>, median_trend <dbl>, lower_95_percent_ci <dbl>,
## #   upper_95_percent_ci <dbl>, and abbreviated variable names ¹​common_name,
## #   ²​scientific_name, ³​life_expectancy, ⁴​urban_affiliate, ⁵​migratory_strategy,
## #   ⁶​log10_mass
```
…
