…
4. Refocus the data only to include country, isscaap_taxonomic_group, asfis_species_name, asfis_species_number, year, catch.

```r
select(fisheries_tidy, country, isscaap_group_number, asfis_species_name, asfis_species_number,year,catch)
```

```
## # A tibble: 376,771 × 6
##    country isscaap_group_number asfis_species_name asfis_species_n…¹  year catch
##    <fct>   <fct>                <chr>              <fct>             <dbl> <dbl>
##  1 Albania 38                   Squatinidae        10903XXXXX         1995    NA
##  2 Albania 38                   Squatinidae        10903XXXXX         1996    53
##  3 Albania 38                   Squatinidae        10903XXXXX         1997    20
##  4 Albania 38                   Squatinidae        10903XXXXX         1998    31
##  5 Albania 38                   Squatinidae        10903XXXXX         1999    30
##  6 Albania 38                   Squatinidae        10903XXXXX         2000    30
##  7 Albania 38                   Squatinidae        10903XXXXX         2001    16
##  8 Albania 38                   Squatinidae        10903XXXXX         2002    79
##  9 Albania 38                   Squatinidae        10903XXXXX         2003     1
## 10 Albania 38                   Squatinidae        10903XXXXX         2004     4
## # … with 376,761 more rows, and abbreviated variable name ¹​asfis_species_number
```
…
