…
```r
miss_var_summary(surgery)
```

```
## # A tibble: 25 × 3
##    variable          n_miss pct_miss
##    <chr>              <int>    <dbl>
##  1 bmi                 3290 10.3    
##  2 race                 480  1.50   
##  3 asa_status             8  0.0250 
##  4 gender                 3  0.00937
##  5 age                    2  0.00625
##  6 ahrq_ccs               0  0      
##  7 baseline_cancer        0  0      
##  8 baseline_cvd           0  0      
##  9 baseline_dementia      0  0      
## 10 baseline_diabetes      0  0      
## # … with 15 more rows
```
…
```r
surgery%>%
  group_by(month,mort30)%>%
  summarise(avg_mortality_rate=mean(ccsmort30rate))%>%
  arrange(avg_mortality_rate)
```

```
## `summarise()` has grouped output by 'month'. You can override using the
## `.groups` argument.
```

```
## # A tibble: 24 × 3
## # Groups:   month [12]
##    month mort30 avg_mortality_rate
##    <chr> <chr>               <dbl>
##  1 Dec   No                0.00417
##  2 Mar   No                0.00420
##  3 Feb   No                0.00423
##  4 Jan   No                0.00425
##  5 Apr   No                0.00427
##  6 Jul   No                0.00428
##  7 Oct   No                0.00428
##  8 Nov   No                0.00431
##  9 Sep   No                0.00432
## 10 Jun   No                0.00433
## # … with 14 more rows
```
…
