…
```r
#no NAs
```


```r
gapminder%>%
  arrange(gdpPercap)
```

```
## # A tibble: 1,704 × 6
##    country          continent  year lifeExp      pop gdpPercap
##    <fct>            <fct>     <int>   <dbl>    <int>     <dbl>
##  1 Congo, Dem. Rep. Africa     2002    45.0 55379852      241.
##  2 Congo, Dem. Rep. Africa     2007    46.5 64606759      278.
##  3 Lesotho          Africa     1952    42.1   748747      299.
##  4 Guinea-Bissau    Africa     1952    32.5   580653      300.
##  5 Congo, Dem. Rep. Africa     1997    42.6 47798986      312.
##  6 Eritrea          Africa     1952    35.9  1438760      329.
##  7 Myanmar          Asia       1952    36.3 20092996      331 
##  8 Lesotho          Africa     1957    45.0   813338      336.
##  9 Burundi          Africa     1952    39.0  2445618      339.
## 10 Eritrea          Africa     1957    38.0  1542611      344.
## # … with 1,694 more rows
```
…
**4. Your answer above doesn't tell the whole story since life expectancy varies by region. Make a summary that shows the min, mean, and max life expectancy by continent for all years represented in the data.**


```r
gapminder%>%
  group_by(country)%>%
  summarise(avg_life=mean(lifeExp), .groups='keep')%>%
  arrange(-avg_life)
```

```
## # A tibble: 142 × 2
## # Groups:   country [142]
##    country     avg_life
##    <fct>          <dbl>
##  1 Iceland         76.5
##  2 Sweden          76.2
##  3 Norway          75.8
##  4 Netherlands     75.6
##  5 Switzerland     75.6
##  6 Canada          74.9
##  7 Japan           74.8
##  8 Australia       74.7
##  9 Denmark         74.4
## 10 France          74.3
## # … with 132 more rows
```

```r
gapminder%>%
  group_by(country)%>%
  slice_max(lifeExp)
```

```
## # A tibble: 142 × 6
## # Groups:   country [142]
##    country     continent  year lifeExp       pop gdpPercap
##    <fct>       <fct>     <int>   <dbl>     <int>     <dbl>
##  1 Afghanistan Asia       2007    43.8  31889923      975.
##  2 Albania     Europe     2007    76.4   3600523     5937.
##  3 Algeria     Africa     2007    72.3  33333216     6223.
##  4 Angola      Africa     2007    42.7  12420476     4797.
##  5 Argentina   Americas   2007    75.3  40301927    12779.
##  6 Australia   Oceania    2007    81.2  20434176    34435.
##  7 Austria     Europe     2007    79.8   8199783    36126.
##  8 Bahrain     Asia       2007    75.6    708573    29796.
##  9 Bangladesh  Asia       2007    64.1 150448339     1391.
## 10 Belgium     Europe     2007    79.4  10392226    33693.
## # … with 132 more rows
```

```r
gapminder%>%
  group_by(country)%>%
  slice_min(lifeExp)
```

```
## # A tibble: 142 × 6
## # Groups:   country [142]
##    country     continent  year lifeExp      pop gdpPercap
##    <fct>       <fct>     <int>   <dbl>    <int>     <dbl>
##  1 Afghanistan Asia       1952    28.8  8425333      779.
##  2 Albania     Europe     1952    55.2  1282697     1601.
##  3 Algeria     Africa     1952    43.1  9279525     2449.
##  4 Angola      Africa     1952    30.0  4232095     3521.
##  5 Argentina   Americas   1952    62.5 17876956     5911.
##  6 Australia   Oceania    1952    69.1  8691212    10040.
##  7 Austria     Europe     1952    66.8  6927772     6137.
##  8 Bahrain     Asia       1952    50.9   120447     9867.
##  9 Bangladesh  Asia       1952    37.5 46886859      684.
## 10 Belgium     Europe     1952    68    8730405     8343.
## # … with 132 more rows
```
…
**7. Which countries have had the largest population growth since 1952?**

```r
gapminder%>%
  select(country,pop,year)%>%
  pivot_wider(names_from = year,names_prefix = "yr_",values_from = pop)%>%
  mutate(pop_growth=yr_2007-yr_1952)%>%
  select(country,pop_growth,yr_1952,yr_2007)%>%
  arrange(-pop_growth)
```

```
## # A tibble: 142 × 4
##    country       pop_growth   yr_1952    yr_2007
##    <fct>              <int>     <int>      <int>
##  1 China          762419569 556263527 1318683096
##  2 India          738396331 372000000 1110396331
##  3 United States  143586947 157553000  301139947
##  4 Indonesia      141495000  82052000  223547000
##  5 Brazil         133408087  56602560  190010647
##  6 Pakistan       127924057  41346560  169270617
##  7 Bangladesh     103561480  46886859  150448339
##  8 Nigeria        101912068  33119096  135031164
##  9 Mexico          78556574  30144317  108700891
## 10 Philippines     68638596  22438691   91077287
## # … with 132 more rows
```
…
