…
2. Notice that we have some neutral superheros! Who are they?

```r
filter(superhero_info, alignment=="neutral")
```

```
## # A tibble: 24 × 10
##    name       gender eye_c…¹ race  hair_…² height publi…³ skin_…⁴ align…⁵ weight
##    <chr>      <chr>  <chr>   <chr> <chr>    <dbl> <chr>   <chr>   <chr>    <dbl>
##  1 Bizarro    Male   black   Biza… Black      191 DC Com… white   neutral    155
##  2 Black Fla… Male   <NA>    God … <NA>        NA DC Com… <NA>    neutral     NA
##  3 Captain C… Male   brown   Human Brown       NA DC Com… <NA>    neutral     NA
##  4 Copycat    Female red     Muta… White      183 Marvel… blue    neutral     67
##  5 Deadpool   Male   brown   Muta… No Hair    188 Marvel… <NA>    neutral     95
##  6 Deathstro… Male   blue    Human White      193 DC Com… <NA>    neutral    101
##  7 Etrigan    Male   red     Demon No Hair    193 DC Com… yellow  neutral    203
##  8 Galactus   Male   black   Cosm… Black      876 Marvel… <NA>    neutral     16
##  9 Gladiator  Male   blue    Stro… Blue       198 Marvel… purple  neutral    268
## 10 Indigo     Female <NA>    Alien Purple      NA DC Com… <NA>    neutral     NA
## # … with 14 more rows, and abbreviated variable names ¹​eye_color, ²​hair_color,
## #   ³​publisher, ⁴​skin_color, ⁵​alignment
```

## `superhero_info`
3. Let's say we are only interested in the variables name, alignment, and "race". How would you isolate these variables from `superhero_info`?

```r
select(superhero_info, name, alignment,race)
```

```
## # A tibble: 734 × 3
##    name          alignment race             
##    <chr>         <chr>     <chr>            
##  1 A-Bomb        good      Human            
##  2 Abe Sapien    good      Icthyo Sapien    
##  3 Abin Sur      good      Ungaran          
##  4 Abomination   bad       Human / Radiation
##  5 Abraxas       bad       Cosmic Entity    
##  6 Absorbing Man bad       Human            
##  7 Adam Monroe   good      <NA>             
##  8 Adam Strange  good      Human            
##  9 Agent 13      good      <NA>             
## 10 Agent Bob     good      Human            
## # … with 724 more rows
```

## Not Human
4. List all of the superheros that are not human.

```r
filter(superhero_info, race!="Human")
```

```
## # A tibble: 222 × 10
##    name       gender eye_c…¹ race  hair_…² height publi…³ skin_…⁴ align…⁵ weight
##    <chr>      <chr>  <chr>   <chr> <chr>    <dbl> <chr>   <chr>   <chr>    <dbl>
##  1 Abe Sapien Male   blue    Icth… No Hair    191 Dark H… blue    good        65
##  2 Abin Sur   Male   blue    Unga… No Hair    185 DC Com… red     good        90
##  3 Abominati… Male   green   Huma… No Hair    203 Marvel… <NA>    bad        441
##  4 Abraxas    Male   blue    Cosm… Black       NA Marvel… <NA>    bad         NA
##  5 Ajax       Male   brown   Cybo… Black      193 Marvel… <NA>    bad         90
##  6 Alien      Male   <NA>    Xeno… No Hair    244 Dark H… black   bad        169
##  7 Amazo      Male   red     Andr… <NA>       257 DC Com… <NA>    bad        173
##  8 Angel      Male   <NA>    Vamp… <NA>        NA Dark H… <NA>    good        NA
##  9 Angel Dust Female yellow  Muta… Black      165 Marvel… <NA>    good        57
## 10 Anti-Moni… Male   yellow  God … No Hair     61 DC Com… <NA>    bad         NA
## # … with 212 more rows, and abbreviated variable names ¹​eye_color, ²​hair_color,
## #   ³​publisher, ⁴​skin_color, ⁵​alignment
```
…
```r
#sif,thor,and thor girl(lazy name imo)
```

8. Among the bad guys, who are the male humans over 200 inches in height?

```r
filter(bad_guys,height>200)
```

```
## # A tibble: 25 × 10
##    name       gender eye_c…¹ race  hair_…² height publi…³ skin_…⁴ align…⁵ weight
##    <chr>      <chr>  <chr>   <chr> <chr>    <dbl> <chr>   <chr>   <chr>    <dbl>
##  1 Abominati… Male   green   Huma… No Hair    203 Marvel… <NA>    bad        441
##  2 Alien      Male   <NA>    Xeno… No Hair    244 Dark H… black   bad        169
##  3 Amazo      Male   red     Andr… <NA>       257 DC Com… <NA>    bad        173
##  4 Apocalypse Male   red     Muta… Black      213 Marvel… grey    bad        135
##  5 Bane       Male   <NA>    Human <NA>       203 DC Com… <NA>    bad        180
##  6 Bloodaxe   Female blue    Human Brown      218 Marvel… <NA>    bad        495
##  7 Darkseid   Male   red     New … No Hair    267 DC Com… grey    bad        817
##  8 Doctor Do… Male   brown   Human Brown      201 Marvel… <NA>    bad        187
##  9 Doctor Do… Male   brown   <NA>  Brown      201 Marvel… <NA>    bad        132
## 10 Doomsday   Male   red     Alien White      244 DC Com… <NA>    bad        412
## # … with 15 more rows, and abbreviated variable names ¹​eye_color, ²​hair_color,
## #   ³​publisher, ⁴​skin_color, ⁵​alignment
```
…
```r
bald_bad_guys <-filter(bad_guys, hair_color=="No Hair")
#35 obs so 35 bald bad guys
#there are more bald good guys than bad guys
```

10. Let's explore who the really "big" superheros are. In the `superhero_info` data, which have a height over 200 or weight greater than or equal to 450?

```r
filter(superhero_info, height>200|weight>=450)
```

```
## # A tibble: 60 × 10
##    name       gender eye_c…¹ race  hair_…² height publi…³ skin_…⁴ align…⁵ weight
##    <chr>      <chr>  <chr>   <chr> <chr>    <dbl> <chr>   <chr>   <chr>    <dbl>
##  1 A-Bomb     Male   yellow  Human No Hair    203 Marvel… <NA>    good       441
##  2 Abominati… Male   green   Huma… No Hair    203 Marvel… <NA>    bad        441
##  3 Alien      Male   <NA>    Xeno… No Hair    244 Dark H… black   bad        169
##  4 Amazo      Male   red     Andr… <NA>       257 DC Com… <NA>    bad        173
##  5 Ant-Man    Male   blue    Human Blond      211 Marvel… <NA>    good       122
##  6 Anti-Venom Male   blue    Symb… Blond      229 Marvel… <NA>    <NA>       358
##  7 Apocalypse Male   red     Muta… Black      213 Marvel… grey    bad        135
##  8 Bane       Male   <NA>    Human <NA>       203 DC Com… <NA>    bad        180
##  9 Beta Ray … Male   <NA>    <NA>  No Hair    201 Marvel… <NA>    good       216
## 10 Bloodaxe   Female blue    Human Brown      218 Marvel… <NA>    bad        495
## # … with 50 more rows, and abbreviated variable names ¹​eye_color, ²​hair_color,
## #   ³​publisher, ⁴​skin_color, ⁵​alignment
```
…
```r
#some of the superheroes are both over 300 in height AND over 450 in weight, so they would be accounted for twice if we just added the number of rows of each filter
```

## Height to Weight Ratio
13. It's easy to be strong when you are heavy and tall, but who is heavy and short? Which superheros have the highest height to weight ratio?

```r
superhero_info %>%
  mutate(weight_height_ratio =weight/height)%>%
  arrange(desc(weight_height_ratio))
```

```
## # A tibble: 734 × 11
##    name       gender eye_c…¹ race  hair_…² height publi…³ skin_…⁴ align…⁵ weight
##    <chr>      <chr>  <chr>   <chr> <chr>    <dbl> <chr>   <chr>   <chr>    <dbl>
##  1 Giganta    Female green   <NA>  Red       62.5 DC Com… <NA>    bad        630
##  2 Utgard-Lo… Male   blue    Fros… White     15.2 Marvel… <NA>    bad         58
##  3 Darkseid   Male   red     New … No Hair  267   DC Com… grey    bad        817
##  4 Juggernaut Male   blue    Human Red      287   Marvel… <NA>    neutral    855
##  5 Red Hulk   Male   yellow  Huma… Black    213   Marvel… red     neutral    630
##  6 Sasquatch  Male   red     <NA>  Orange   305   Marvel… <NA>    good       900
##  7 Hulk       Male   green   Huma… Green    244   Marvel… green   good       630
##  8 Bloodaxe   Female blue    Human Brown    218   Marvel… <NA>    bad        495
##  9 Thanos     Male   red     Eter… No Hair  201   Marvel… purple  bad        443
## 10 A-Bomb     Male   yellow  Human No Hair  203   Marvel… <NA>    good       441
## # … with 724 more rows, 1 more variable: weight_height_ratio <dbl>, and
## #   abbreviated variable names ¹​eye_color, ²​hair_color, ³​publisher,
## #   ⁴​skin_color, ⁵​alignment
```
…
14. How many superheros have a combination of accelerated healing, durability, and super strength?

```r
superhero_powers%>%
  filter(accelerated_healing=TRUE)%>%
  filter(super_strength=TRUE)%>%
  filter(durability=TRUE)
```

```
## # A tibble: 667 × 168
##    hero_names    agility accel…¹ lante…² dimen…³ cold_…⁴ durab…⁵ stealth energ…⁶
##    <chr>         <lgl>   <lgl>   <lgl>   <lgl>   <lgl>   <lgl>   <lgl>   <lgl>  
##  1 3-D Man       TRUE    FALSE   FALSE   FALSE   FALSE   FALSE   FALSE   FALSE  
##  2 A-Bomb        FALSE   TRUE    FALSE   FALSE   FALSE   TRUE    FALSE   FALSE  
##  3 Abe Sapien    TRUE    TRUE    FALSE   FALSE   TRUE    TRUE    FALSE   FALSE  
##  4 Abin Sur      FALSE   FALSE   TRUE    FALSE   FALSE   FALSE   FALSE   FALSE  
##  5 Abomination   FALSE   TRUE    FALSE   FALSE   FALSE   FALSE   FALSE   FALSE  
##  6 Abraxas       FALSE   FALSE   FALSE   TRUE    FALSE   FALSE   FALSE   FALSE  
##  7 Absorbing Man FALSE   FALSE   FALSE   FALSE   TRUE    TRUE    FALSE   TRUE   
##  8 Adam Monroe   FALSE   TRUE    FALSE   FALSE   FALSE   FALSE   FALSE   FALSE  
##  9 Adam Strange  FALSE   FALSE   FALSE   FALSE   FALSE   TRUE    TRUE    FALSE  
## 10 Agent Bob     FALSE   FALSE   FALSE   FALSE   FALSE   FALSE   TRUE    FALSE  
## # … with 657 more rows, 159 more variables: flight <lgl>, danger_sense <lgl>,
## #   underwater_breathing <lgl>, marksmanship <lgl>, weapons_master <lgl>,
## #   power_augmentation <lgl>, animal_attributes <lgl>, longevity <lgl>,
## #   intelligence <lgl>, super_strength <lgl>, cryokinesis <lgl>,
## #   telepathy <lgl>, energy_armor <lgl>, energy_blasts <lgl>,
## #   duplication <lgl>, size_changing <lgl>, density_control <lgl>,
## #   stamina <lgl>, astral_travel <lgl>, audio_control <lgl>, dexterity <lgl>, …
```
…
